%YAML 1.1
%TAG !u! tag:unity3d.com,2011:
--- !u!1045 &1
EditorBuildSettings:
  m_ObjectHideFlags: 0
  serializedVersion: 2
  m_Scenes:
  - enabled: 0
    path: 
    guid: 00000000000000000000000000000000
  - enabled: 1
    path: Assets/DataFiles/login.unity
    guid: 878af42b8d731054cbe711979b787139
  - enabled: 1
    path: Assets/DataFiles/carView.unity
    guid: 2f5ce5a3b741f8245a0bbaa2d35f44e3
  - enabled: 1
    path: Assets/DataFiles/dashboard.unity
    guid: c83dc358ccb56a943b7b68303e3ae3ed
  - enabled: 1
    path: Assets/DataFiles/newRes.unity
    guid: 3999e79088fa1ba4c8741a6c4657a204
  - enabled: 1
    path: Assets/DataFiles/showRes.unity
    guid: 63475c8763fd846419d85fafc0787c9f
  - enabled: 1
    path: Assets/DataFiles/viewModel.unity
    guid: 4c42e624b7061ed4da04144058742121
  - enabled: 1
    path: Assets/DataFiles/settings.unity
    guid: 874932d3d28c94148bdf0be681b7d9e0
  m_configObjects: {}
